<?xml version="1.0" encoding="utf-8"?>
<!-- Generator: Adobe Illustrator 24.3.0, SVG Export Plug-In . SVG Version: 6.00 Build 0)  -->
<svg version="1.1" xmlns="http://www.w3.org/2000/svg" xmlns:xlink="http://www.w3.org/1999/xlink" x="0px" y="0px"
	 viewBox="0 0 354.36 73.24" style="enable-background:new 0 0 354.36 73.24;" xml:space="preserve">
<style type="text/css">
	.st0{fill:#39057C;}
	.st1{fill:#E5541A;}
	.st2{fill:#E6E6E6;}
	.st3{fill:#606060;}
	.st4{fill:#FFFFFF;}
</style>
<g id="Capa_1">
</g>
<g id="Capa_2">
	<g>
		<rect x="172.99" y="7.41" class="st0" width="3.81" height="58.41"/>
		<g>
			<path class="st0" d="M25.98,42.66H15.14v20.17h-8.1V12.41h20.55c10.85,0,17.65,5.65,17.65,15.13c0,7.26-3.97,12.3-10.7,14.21
				l13.68,21.09h-9.4L25.98,42.66z M15.14,35.86H26.9c6.65,0,9.86-2.67,9.86-8.25s-3.21-8.25-9.86-8.25H15.14V35.86z"/>
			<path class="st0" d="M55.55,13.1c0-3.21,1.99-5.04,5.5-5.04c3.51,0,5.42,1.83,5.42,5.04c0,3.21-1.91,5.12-5.42,5.12
				C57.54,18.22,55.55,16.3,55.55,13.1z M65.1,62.83h-8.17v-38.2h8.17V62.83z"/>
			<path class="st4" d="M79.01,12.41h19.86c12.07,0,17.5,5.2,17.5,13.83c0,5.27-3.13,9.93-9.02,11v0.08
				c6.49,1.07,10.31,5.88,10.31,11.54c0,8.63-6.49,13.98-18.49,13.98H79.01V12.41z M98.26,34.11c6.42,0,9.63-2.45,9.63-7.41
				s-3.21-7.41-9.63-7.41H87.03v14.82H98.26z M99.56,56.03c6.42,0,9.63-2.75,9.63-7.56s-3.21-7.56-9.63-7.56H87.03v15.13H99.56z"/>
			<path class="st4" d="M162.28,46.79h-27.96c0.92,6.72,4.89,10.31,11.08,10.31c5.04,0,8.4-1.83,9.63-5.2l6.8,2.83
				c-2.75,5.65-8.02,8.86-16.43,8.86c-12.07,0-19.18-7.41-19.18-19.86c0-12.45,6.72-19.86,18.64-19.86
				c11.46,0,17.72,7.64,17.72,18.72C162.59,44.04,162.43,45.8,162.28,46.79z M134.4,40.52h20.55c-0.76-6.42-4.35-10.16-10.08-10.16
				C138.83,30.36,135.24,33.95,134.4,40.52z"/>
		</g>
		<g>
			<path class="st4" d="M196.96,35c-4.52,0-7.33-2.95-7.33-7.83s2.83-7.83,7.28-7.83c3.11,0,5.44,1.29,6.29,3.94l-2.88,1.22
				c-0.51-1.84-1.52-2.56-3.27-2.56c-2.53,0-4.12,1.84-4.12,5.23c0,3.36,1.5,5.23,4.06,5.23c1.82,0,3.02-0.88,3.5-2.7l2.93,0.88
				C202.49,33.55,200.05,35,196.96,35z"/>
			<path class="st4" d="M217,29.01c0,3.75-2.19,5.99-5.9,5.99c-3.71,0-5.9-2.24-5.9-5.99c0-3.76,2.19-5.99,5.9-5.99
				C214.81,23.02,217,25.26,217,29.01z M208.36,29.01c0,2.44,0.97,3.64,2.74,3.64c1.77,0,2.74-1.2,2.74-3.64s-0.97-3.64-2.74-3.64
				C209.33,25.37,208.36,26.57,208.36,29.01z"/>
			<path class="st4" d="M238.24,27.21l-0.02,7.56h-3.13v-6.94c0-1.68-0.83-2.33-1.98-2.33c-1.41,0-2.53,1.06-2.53,3.06v6.2h-3.16
				v-6.94c0-1.68-0.83-2.33-2-2.33c-1.22,0-2.53,0.9-2.53,3.16v6.11h-3.16V23.25h2.83l0.12,2.03c0.76-1.52,2.19-2.26,3.8-2.26
				c1.66,0,3.13,0.76,3.76,2.33c0.76-1.57,2.3-2.33,3.92-2.33C236.38,23.02,238.27,24.38,238.24,27.21z"/>
			<path class="st4" d="M252.43,23.25v11.52h-2.81l-0.12-1.98c-0.76,1.52-2.19,2.21-4.03,2.21c-2.33,0-4.06-1.17-4.06-4.12v-7.63
				h3.16v6.82c0,1.87,0.76,2.44,2,2.44c1.5,0,2.7-0.95,2.7-3.09v-6.17H252.43z"/>
			<path class="st4" d="M266.76,27.21v7.56h-3.16v-6.64c0-1.98-0.85-2.63-2.05-2.63c-1.34,0-2.65,0.88-2.65,3.18v6.08h-3.16V23.25
				h2.83l0.12,2.05c0.76-1.54,2.19-2.28,3.92-2.28C265.01,23.02,266.76,24.43,266.76,27.21z"/>
			<path class="st4" d="M269.64,19.91c0-1.13,0.65-1.71,1.96-1.71c1.31,0,1.96,0.58,1.96,1.71s-0.65,1.68-1.96,1.68
				C270.28,21.59,269.64,21.04,269.64,19.91z M273.16,34.77h-3.16V23.25h3.16V34.77z"/>
			<path class="st4" d="M287.06,26.41l-2.95,1.06c-0.28-1.38-1.01-2.1-2.23-2.1c-1.8,0-2.81,1.24-2.81,3.66
				c0,2.47,1.08,3.62,2.79,3.62c1.38,0,2.17-0.74,2.4-2.05l2.86,0.92c-0.48,2.05-2.28,3.48-5.21,3.48c-3.82,0-5.99-2.21-5.99-5.99
				c0-3.78,2.19-5.99,5.88-5.99C285.03,23.02,286.5,24.52,287.06,26.41z"/>
			<path class="st4" d="M300.92,32.77l-0.23,1.91c-0.42,0.21-0.92,0.32-1.5,0.32c-1.38,0-2.33-0.48-2.65-1.73
				c-0.69,1.13-2.14,1.73-4.08,1.73c-2.19,0-3.57-1.01-3.57-2.95c0-1.8,1.41-3.06,4.49-3.64l2.77-0.53v-0.55c0-1.22-0.71-2-1.96-2
				c-1.34,0-2.3,0.51-2.65,1.96l-2.51-1.06c0.48-1.96,2.21-3.2,5.02-3.2c3.2,0,5.23,1.38,5.23,4.24v4.72c0,0.6,0.25,0.88,0.85,0.88
				C300.42,32.86,300.69,32.84,300.92,32.77z M296.15,31.02v-1.2l-2.47,0.55c-1.01,0.23-1.54,0.6-1.54,1.36
				c0,0.74,0.48,1.13,1.31,1.13C294.66,32.86,296.15,32.24,296.15,31.02z"/>
			<path class="st4" d="M313.34,26.41l-2.95,1.06c-0.28-1.38-1.01-2.1-2.23-2.1c-1.8,0-2.81,1.24-2.81,3.66
				c0,2.47,1.08,3.62,2.79,3.62c1.38,0,2.17-0.74,2.4-2.05l2.86,0.92c-0.48,2.05-2.28,3.48-5.21,3.48c-3.82,0-5.99-2.21-5.99-5.99
				c0-3.78,2.19-5.99,5.88-5.99C311.31,23.02,312.79,24.52,313.34,26.41z"/>
			<path class="st4" d="M315.53,19.91c0-1.13,0.65-1.71,1.96-1.71c1.31,0,1.96,0.58,1.96,1.71s-0.65,1.68-1.96,1.68
				C316.17,21.59,315.53,21.04,315.53,19.91z M319.05,34.77h-3.16V23.25h3.16V34.77z"/>
			<path class="st4" d="M333.59,29.01c0,3.75-2.19,5.99-5.9,5.99c-3.71,0-5.9-2.24-5.9-5.99c0-3.76,2.19-5.99,5.9-5.99
				C331.4,23.02,333.59,25.26,333.59,29.01z M324.95,29.01c0,2.44,0.97,3.64,2.74,3.64c1.77,0,2.74-1.2,2.74-3.64
				s-0.97-3.64-2.74-3.64C325.92,25.37,324.95,26.57,324.95,29.01z M330.8,17.68l-2.3,3.92h-2.35l1.61-3.92H330.8z"/>
			<path class="st4" d="M347.32,27.21v7.56h-3.16v-6.64c0-1.98-0.85-2.63-2.05-2.63c-1.34,0-2.65,0.88-2.65,3.18v6.08h-3.16V23.25
				h2.83l0.11,2.05c0.76-1.54,2.19-2.28,3.92-2.28C345.57,23.02,347.32,24.43,347.32,27.21z"/>
		</g>
		<g>
			<path class="st0" d="M202.86,56.15c-1.45,0-2.4-0.23-3.92-1.57c-1.08,0.97-2.58,1.57-4.42,1.57c-3.04,0-5.16-1.54-5.16-4.06
				c-0.02-1.57,0.76-3.23,3.32-4.31c-1.29-1.57-1.66-2.42-1.66-3.62c0-1.82,1.38-3.69,4.24-3.69c2.6,0,4.19,1.34,4.19,3.43
				c0,1.73-0.81,3.09-3.23,4.17l1.29,1.5c0.65,0.74,1.17,1.36,1.66,1.89c0.48-0.94,0.74-2.07,0.67-3.5l2.19,0.12
				c0.05,1.82-0.46,3.5-1.47,4.79c0.99,0.9,1.66,1.11,2.7,1.01L202.86,56.15z M194.72,53.96c1.04,0,1.98-0.25,2.81-0.74
				c-0.51-0.53-1.06-1.13-1.68-1.84c-0.74-0.81-1.38-1.5-1.91-2.12c-1.5,1.01-1.84,1.68-1.84,2.6
				C192.1,53.11,193.25,53.96,194.72,53.96z M193.78,44.24c0,0.69,0.21,1.17,1.31,2.51c1.57-1.01,1.77-1.82,1.77-2.7
				c0-0.92-0.6-1.36-1.57-1.36C194.31,42.7,193.78,43.36,193.78,44.24z"/>
			<path class="st4" d="M228.84,55.92h-2.86V48l0.14-4.45h-0.05l-4.22,12.37h-2.6l-4.19-12.37h-0.05l0.16,4.45v7.93h-2.88V40.72
				h4.61l2.74,8.29l0.97,3.43h0.05l0.99-3.41l2.72-8.32h4.47V55.92z"/>
			<path class="st4" d="M243.01,51.36h-8.16c0.32,1.66,1.34,2.44,2.88,2.44c1.34,0,2.21-0.51,2.53-1.43l2.58,0.94
				c-0.74,1.84-2.51,2.83-5.12,2.83c-3.82,0-5.99-2.21-5.99-5.99c0-3.78,2.1-5.99,5.81-5.99c3.59,0,5.55,2.17,5.55,5.94
				C243.1,50.44,243.05,51.06,243.01,51.36z M234.83,49.15h5.37c-0.25-1.73-1.22-2.65-2.67-2.65C236,46.5,235.08,47.4,234.83,49.15z
				"/>
			<path class="st4" d="M253.51,44.43l-0.39,2.76c-0.32-0.21-0.85-0.35-1.45-0.35c-1.38,0-2.77,1.01-2.77,3.11v5.97h-3.16V44.4h2.74
				l0.21,2.26c0.6-1.59,1.77-2.49,3.57-2.49C252.77,44.17,253.24,44.26,253.51,44.43z"/>
			<path class="st4" d="M265.79,47.56l-2.95,1.06c-0.28-1.38-1.01-2.1-2.23-2.1c-1.8,0-2.81,1.24-2.81,3.66
				c0,2.47,1.08,3.62,2.79,3.62c1.38,0,2.17-0.74,2.4-2.05l2.86,0.92c-0.48,2.05-2.28,3.48-5.21,3.48c-3.82,0-5.99-2.21-5.99-5.99
				c0-3.78,2.19-5.99,5.88-5.99C263.76,44.17,265.24,45.67,265.79,47.56z"/>
			<path class="st4" d="M279.66,53.92l-0.23,1.91c-0.42,0.21-0.92,0.32-1.5,0.32c-1.38,0-2.33-0.48-2.65-1.73
				c-0.69,1.13-2.14,1.73-4.08,1.73c-2.19,0-3.57-1.01-3.57-2.95c0-1.8,1.41-3.06,4.49-3.64l2.77-0.53v-0.55c0-1.22-0.71-2-1.96-2
				c-1.34,0-2.3,0.51-2.65,1.96l-2.51-1.06c0.48-1.96,2.21-3.2,5.02-3.2c3.2,0,5.23,1.38,5.23,4.24v4.72c0,0.6,0.25,0.88,0.85,0.88
				C279.15,54.01,279.43,53.99,279.66,53.92z M274.89,52.17v-1.2l-2.47,0.55c-1.01,0.23-1.54,0.6-1.54,1.36
				c0,0.74,0.48,1.13,1.31,1.13C273.39,54.01,274.89,53.39,274.89,52.17z"/>
			<path class="st4" d="M292.67,39.36v16.57h-2.81l-0.14-2.07c-0.67,1.38-2.03,2.3-3.8,2.3c-3.06,0-4.93-2.21-4.93-5.97
				c0-3.78,1.89-6.01,4.93-6.01c1.68,0,2.93,0.83,3.59,2.1v-6.91H292.67z M289.52,50.83v-1.34c-0.16-1.84-1.13-2.9-2.65-2.9
				c-1.68,0-2.7,1.22-2.7,3.57c0,2.35,1.01,3.57,2.7,3.57C288.37,53.73,289.36,52.72,289.52,50.83z"/>
			<path class="st4" d="M306.68,51.36h-8.16c0.32,1.66,1.34,2.44,2.88,2.44c1.34,0,2.21-0.51,2.53-1.43l2.58,0.94
				c-0.74,1.84-2.51,2.83-5.12,2.83c-3.82,0-5.99-2.21-5.99-5.99c0-3.78,2.1-5.99,5.81-5.99c3.59,0,5.55,2.17,5.55,5.94
				C306.77,50.44,306.73,51.06,306.68,51.36z M298.5,49.15h5.37c-0.25-1.73-1.22-2.65-2.67-2.65
				C299.68,46.5,298.76,47.4,298.5,49.15z"/>
			<path class="st4" d="M320.62,50.16c0,3.75-2.19,5.99-5.9,5.99c-3.71,0-5.9-2.24-5.9-5.99c0-3.76,2.19-5.99,5.9-5.99
				C318.43,44.17,320.62,46.41,320.62,50.16z M311.98,50.16c0,2.44,0.97,3.64,2.74,3.64c1.77,0,2.74-1.2,2.74-3.64
				s-0.97-3.64-2.74-3.64C312.95,46.52,311.98,47.72,311.98,50.16z"/>
		</g>
	</g>
</g>
</svg>
